{
    "asset": {
        "generator": "Khronos glTF Blender I/O v1.7.33",
        "version": "2.0"
    },
    "scene": 0,
    "scenes": [
        {
            "name": "Scene",
            "nodes": [0, 1, 2, 3, 4, 5, 6, 7]
        }
    ],
    "nodes": [
        {
            "mesh": 0,
            "name": "Cylinder"
        },
        {
            "mesh": 1,
            "name": "Text",
            "rotation": [
                0.6870660781860352, -0.1671532690525055, 0.1671532690525055,
                0.6870660781860352
            ],
            "translation": [
                -0.39366409182548523, 0.10490629822015762, 0.7356998324394226
            ]
        },
        {
            "mesh": 2,
            "name": "Text.001",
            "rotation": [
                0.7049603462219238, -0.05505412817001343, 0.05505412817001343,
                0.704960286617279
            ],
            "translation": [
                -0.2719358503818512, 0.10490629822015762, 0.8021438717842102
            ]
        },
        {
            "mesh": 3,
            "name": "Text.002",
            "rotation": [
                0.7049603462219238, -0.05505412817001343, 0.05505412817001343,
                0.704960286617279
            ],
            "translation": [
                -0.09063103049993515, 0.10490629822015762, 0.8190504312515259
            ]
        },
        {
            "mesh": 4,
            "name": "Text.003",
            "rotation": [
                0.7040539383888245, 0.0656360313296318, -0.0656360313296318,
                0.7040538787841797
            ],
            "translation": [
                0.09004766494035721, 0.10490629822015762, 0.8393089175224304
            ]
        },
        {
            "mesh": 5,
            "name": "Text.004",
            "rotation": [
                0.6984660625457764, 0.1102055013179779, -0.1102055013179779,
                0.6984660625457764
            ],
            "translation": [
                0.23763911426067352, 0.10490629822015762, 0.8108785152435303
            ]
        },
        {
            "mesh": 6,
            "name": "Text.005",
            "rotation": [
                0.6984660625457764, 0.1102055013179779, -0.1102055013179779,
                0.6984660625457764
            ],
            "translation": [
                0.3657861351966858, 0.14011730253696442, 0.7580733299255371
            ]
        },
        {
            "mesh": 7,
            "name": "Text.006",
            "rotation": [
                0.6770004034042358, 0.20413359999656677, -0.20413359999656677,
                0.6770004034042358
            ],
            "translation": [
                0.44256383180618286, 0.10865872353315353, 0.7166701555252075
            ]
        }
    ],
    "materials": [
        {
            "doubleSided": true,
            "name": "Material.002",
            "pbrMetallicRoughness": {
                "baseColorTexture": {
                    "index": 0
                },
                "metallicFactor": 0
            }
        },
        {
            "doubleSided": true,
            "name": "Material.001",
            "pbrMetallicRoughness": {
                "baseColorFactor": [0, 0, 0, 1],
                "metallicFactor": 0,
                "roughnessFactor": 0.5
            }
        },
        {
            "doubleSided": true,
            "name": "Material.003",
            "pbrMetallicRoughness": {
                "baseColorFactor": [0, 0, 0, 1],
                "metallicFactor": 0,
                "roughnessFactor": 0.5
            }
        },
        {
            "doubleSided": true,
            "name": "Material.004",
            "pbrMetallicRoughness": {
                "baseColorFactor": [0, 0, 0, 1],
                "metallicFactor": 0,
                "roughnessFactor": 0.5
            }
        },
        {
            "doubleSided": true,
            "name": "Material.005",
            "pbrMetallicRoughness": {
                "baseColorFactor": [0, 0, 0, 1],
                "metallicFactor": 0,
                "roughnessFactor": 0.5
            }
        },
        {
            "doubleSided": true,
            "name": "Material.006",
            "pbrMetallicRoughness": {
                "baseColorFactor": [0, 0, 0, 1],
                "metallicFactor": 0,
                "roughnessFactor": 0.5
            }
        },
        {
            "doubleSided": true,
            "name": "Material.007",
            "pbrMetallicRoughness": {
                "baseColorFactor": [0, 0, 0, 1],
                "metallicFactor": 0,
                "roughnessFactor": 0.5
            }
        },
        {
            "doubleSided": true,
            "name": "Material.008",
            "pbrMetallicRoughness": {
                "baseColorFactor": [0, 0, 0, 1],
                "metallicFactor": 0,
                "roughnessFactor": 0.5
            }
        }
    ],
    "meshes": [
        {
            "name": "Cylinder.002",
            "primitives": [
                {
                    "attributes": {
                        "POSITION": 0,
                        "NORMAL": 1,
                        "TEXCOORD_0": 2
                    },
                    "indices": 3,
                    "material": 0
                }
            ]
        },
        {
            "name": "Text",
            "primitives": [
                {
                    "attributes": {
                        "POSITION": 4,
                        "NORMAL": 5,
                        "TEXCOORD_0": 6
                    },
                    "indices": 7,
                    "material": 1
                }
            ]
        },
        {
            "name": "Text.001",
            "primitives": [
                {
                    "attributes": {
                        "POSITION": 8,
                        "NORMAL": 9,
                        "TEXCOORD_0": 10
                    },
                    "indices": 11,
                    "material": 2
                }
            ]
        },
        {
            "name": "Text.002",
            "primitives": [
                {
                    "attributes": {
                        "POSITION": 12,
                        "NORMAL": 13,
                        "TEXCOORD_0": 14
                    },
                    "indices": 15,
                    "material": 3
                }
            ]
        },
        {
            "name": "Text.003",
            "primitives": [
                {
                    "attributes": {
                        "POSITION": 16,
                        "NORMAL": 17,
                        "TEXCOORD_0": 18
                    },
                    "indices": 19,
                    "material": 4
                }
            ]
        },
        {
            "name": "Text.004",
            "primitives": [
                {
                    "attributes": {
                        "POSITION": 20,
                        "NORMAL": 21,
                        "TEXCOORD_0": 22
                    },
                    "indices": 23,
                    "material": 5
                }
            ]
        },
        {
            "name": "Text.005",
            "primitives": [
                {
                    "attributes": {
                        "POSITION": 24,
                        "NORMAL": 25,
                        "TEXCOORD_0": 26
                    },
                    "indices": 27,
                    "material": 6
                }
            ]
        },
        {
            "name": "Text.006",
            "primitives": [
                {
                    "attributes": {
                        "POSITION": 28,
                        "NORMAL": 29,
                        "TEXCOORD_0": 30
                    },
                    "indices": 31,
                    "material": 7
                }
            ]
        }
    ],
    "textures": [
        {
            "sampler": 0,
            "source": 0
        }
    ],
    "images": [
        {
            "mimeType": "image/png",
            "name": "part 1 color",
            "uri": "textures/part%201%20color.png"
        }
    ],
    "accessors": [
        {
            "bufferView": 0,
            "componentType": 5126,
            "count": 3699,
            "max": [1.173882007598877, 1.9129648208618164, 1.173882246017456],
            "min": [-1.1738823652267456, 0, -1.173882246017456],
            "type": "VEC3"
        },
        {
            "bufferView": 1,
            "componentType": 5126,
            "count": 3699,
            "type": "VEC3"
        },
        {
            "bufferView": 2,
            "componentType": 5126,
            "count": 3699,
            "type": "VEC2"
        },
        {
            "bufferView": 3,
            "componentType": 5123,
            "count": 19200,
            "type": "SCALAR"
        },
        {
            "bufferView": 4,
            "componentType": 5126,
            "count": 706,
            "max": [0.12489000707864761, 0.029999999329447746, 0],
            "min": [
                0.017249999567866325, -0.029999999329447746,
                -0.15686000883579254
            ],
            "type": "VEC3"
        },
        {
            "bufferView": 5,
            "componentType": 5126,
            "count": 706,
            "type": "VEC3"
        },
        {
            "bufferView": 6,
            "componentType": 5126,
            "count": 706,
            "type": "VEC2"
        },
        {
            "bufferView": 7,
            "componentType": 5123,
            "count": 1284,
            "type": "SCALAR"
        },
        {
            "bufferView": 8,
            "componentType": 5126,
            "count": 514,
            "max": [
                0.14903999865055084, 0.029999999329447746, 0.0020699999295175076
            ],
            "min": [
                0.014030000194907188, -0.029999999329447746,
                -0.15686000883579254
            ],
            "type": "VEC3"
        },
        {
            "bufferView": 9,
            "componentType": 5126,
            "count": 514,
            "type": "VEC3"
        },
        {
            "bufferView": 10,
            "componentType": 5126,
            "count": 514,
            "type": "VEC2"
        },
        {
            "bufferView": 11,
            "componentType": 5123,
            "count": 924,
            "type": "SCALAR"
        },
        {
            "bufferView": 12,
            "componentType": 5126,
            "count": 50,
            "max": [0.16237999498844147, 0.029999999329447746, 0],
            "min": [
                0.017020000144839287, -0.029999999329447746,
                -0.15686000883579254
            ],
            "type": "VEC3"
        },
        {
            "bufferView": 13,
            "componentType": 5126,
            "count": 50,
            "type": "VEC3"
        },
        {
            "bufferView": 14,
            "componentType": 5126,
            "count": 50,
            "type": "VEC2"
        },
        {
            "bufferView": 15,
            "componentType": 5123,
            "count": 108,
            "type": "SCALAR"
        },
        {
            "bufferView": 16,
            "componentType": 5126,
            "count": 42,
            "max": [0.1350099891424179, 0.029999999329447746, 0],
            "min": [
                0.003909999970346689, -0.029999999329447746,
                -0.15686000883579254
            ],
            "type": "VEC3"
        },
        {
            "bufferView": 17,
            "componentType": 5126,
            "count": 42,
            "type": "VEC3"
        },
        {
            "bufferView": 18,
            "componentType": 5126,
            "count": 42,
            "type": "VEC2"
        },
        {
            "bufferView": 19,
            "componentType": 5123,
            "count": 84,
            "type": "SCALAR"
        },
        {
            "bufferView": 20,
            "componentType": 5126,
            "count": 46,
            "max": [0.13891999423503876, 0.029999999329447746, 0],
            "min": [0, -0.029999999329447746, -0.15686000883579254],
            "type": "VEC3"
        },
        {
            "bufferView": 21,
            "componentType": 5126,
            "count": 46,
            "type": "VEC3"
        },
        {
            "bufferView": 22,
            "componentType": 5126,
            "count": 46,
            "type": "VEC2"
        },
        {
            "bufferView": 23,
            "componentType": 5123,
            "count": 96,
            "type": "SCALAR"
        },
        {
            "bufferView": 24,
            "componentType": 5126,
            "count": 18,
            "max": [
                0.06509000062942505, 0.029999999329447746, -0.04002000018954277
            ],
            "min": [
                0.009200000204145908, -0.029999999329447746,
                -0.061410002410411835
            ],
            "type": "VEC3"
        },
        {
            "bufferView": 25,
            "componentType": 5126,
            "count": 18,
            "type": "VEC3"
        },
        {
            "bufferView": 26,
            "componentType": 5126,
            "count": 18,
            "type": "VEC2"
        },
        {
            "bufferView": 27,
            "componentType": 5123,
            "count": 36,
            "type": "SCALAR"
        },
        {
            "bufferView": 28,
            "componentType": 5126,
            "count": 660,
            "max": [
                0.154789999127388, 0.029999999329447746, 0.0020699999295175076
            ],
            "min": [
                0.011500000022351742, -0.029999999329447746, -0.1589300036430359
            ],
            "type": "VEC3"
        },
        {
            "bufferView": 29,
            "componentType": 5126,
            "count": 660,
            "type": "VEC3"
        },
        {
            "bufferView": 30,
            "componentType": 5126,
            "count": 660,
            "type": "VEC2"
        },
        {
            "bufferView": 31,
            "componentType": 5123,
            "count": 1212,
            "type": "SCALAR"
        }
    ],
    "bufferViews": [
        {
            "buffer": 0,
            "byteLength": 44388,
            "byteOffset": 0
        },
        {
            "buffer": 0,
            "byteLength": 44388,
            "byteOffset": 44388
        },
        {
            "buffer": 0,
            "byteLength": 29592,
            "byteOffset": 88776
        },
        {
            "buffer": 0,
            "byteLength": 38400,
            "byteOffset": 118368
        },
        {
            "buffer": 0,
            "byteLength": 8472,
            "byteOffset": 156768
        },
        {
            "buffer": 0,
            "byteLength": 8472,
            "byteOffset": 165240
        },
        {
            "buffer": 0,
            "byteLength": 5648,
            "byteOffset": 173712
        },
        {
            "buffer": 0,
            "byteLength": 2568,
            "byteOffset": 179360
        },
        {
            "buffer": 0,
            "byteLength": 6168,
            "byteOffset": 181928
        },
        {
            "buffer": 0,
            "byteLength": 6168,
            "byteOffset": 188096
        },
        {
            "buffer": 0,
            "byteLength": 4112,
            "byteOffset": 194264
        },
        {
            "buffer": 0,
            "byteLength": 1848,
            "byteOffset": 198376
        },
        {
            "buffer": 0,
            "byteLength": 600,
            "byteOffset": 200224
        },
        {
            "buffer": 0,
            "byteLength": 600,
            "byteOffset": 200824
        },
        {
            "buffer": 0,
            "byteLength": 400,
            "byteOffset": 201424
        },
        {
            "buffer": 0,
            "byteLength": 216,
            "byteOffset": 201824
        },
        {
            "buffer": 0,
            "byteLength": 504,
            "byteOffset": 202040
        },
        {
            "buffer": 0,
            "byteLength": 504,
            "byteOffset": 202544
        },
        {
            "buffer": 0,
            "byteLength": 336,
            "byteOffset": 203048
        },
        {
            "buffer": 0,
            "byteLength": 168,
            "byteOffset": 203384
        },
        {
            "buffer": 0,
            "byteLength": 552,
            "byteOffset": 203552
        },
        {
            "buffer": 0,
            "byteLength": 552,
            "byteOffset": 204104
        },
        {
            "buffer": 0,
            "byteLength": 368,
            "byteOffset": 204656
        },
        {
            "buffer": 0,
            "byteLength": 192,
            "byteOffset": 205024
        },
        {
            "buffer": 0,
            "byteLength": 216,
            "byteOffset": 205216
        },
        {
            "buffer": 0,
            "byteLength": 216,
            "byteOffset": 205432
        },
        {
            "buffer": 0,
            "byteLength": 144,
            "byteOffset": 205648
        },
        {
            "buffer": 0,
            "byteLength": 72,
            "byteOffset": 205792
        },
        {
            "buffer": 0,
            "byteLength": 7920,
            "byteOffset": 205864
        },
        {
            "buffer": 0,
            "byteLength": 7920,
            "byteOffset": 213784
        },
        {
            "buffer": 0,
            "byteLength": 5280,
            "byteOffset": 221704
        },
        {
            "buffer": 0,
            "byteLength": 2424,
            "byteOffset": 226984
        }
    ],
    "samplers": [
        {
            "magFilter": 9729,
            "minFilter": 9987
        }
    ],
    "buffers": [
        {
            "byteLength": 229408,
            "uri": "pot3.bin"
        }
    ]
}
